{
    "KPlugin": {
        "Authors": [
            {
                "Email": "menard@kde.org",
                "Name": "Alexis Menard",
                "Name[az]": "Alexis Menard",
                "Name[bg]": "Alexis Menard",
                "Name[ca@valencia]": "Alexis Menard",
                "Name[ca]": "Alexis Menard",
                "Name[en_GB]": "Alexis Menard",
                "Name[es]": "Alexis Menard",
                "Name[eu]": "Alexis Menard",
                "Name[fi]": "Alexis Menard",
                "Name[fr]": "Alexis Menard",
                "Name[ia]": "Alexis Menard",
                "Name[id]": "Alexis Menard",
                "Name[it]": "Alexis Menard",
                "Name[ko]": "Alexis Menard",
                "Name[nl]": "Alexis Menard",
                "Name[nn]": "Alexis Menard",
                "Name[pl]": "Alexis Menard",
                "Name[pt]": "Alexis Menard",
                "Name[sl]": "Alexis Menard",
                "Name[sv]": "Alexis Menard",
                "Name[tr]": "Alexis Menard",
                "Name[uk]": "Alexis Menard",
                "Name[vi]": "Alexis Menard",
                "Name[x-test]": "xxAlexis Menardxx",
                "Name[zh_CN]": "Alexis Menard"
            }
        ],
        "Category": "Examples",
        "Description": "Native Plasma widget written in QML and JavaScript",
        "Description[az]": "QML və JavaScript-də yazılmış yerli plazma widgetı",
        "Description[ca@valencia]": "Giny nadiu de Plasma escrit en QML i JavaScript",
        "Description[ca]": "Giny nadiu del Plasma escrit en QML i JavaScript",
        "Description[en_GB]": "Native Plasma widget written in QML and JavaScript",
        "Description[es]": "Widget nativo de Plasma escrito en QML y JavaScript",
        "Description[eu]": "Jatorriz Plasmako trepeta QML eta JabaScript-ekin idatzia",
        "Description[fi]": "QML:llä ja JavaScriptillä kirjoitettu natiivi Plasma-sovelma",
        "Description[fr]": "Composant graphique natif de Plasma écrit avec QML et JavaScript",
        "Description[ia]": "Widget native de Plasma scribite in QLM e JavaScript",
        "Description[id]": "Widget Plasma Native ditulis dalam QML dan JavaScript",
        "Description[it]": "Widget nativo di Plasma scritto in QML e JavaScript",
        "Description[ko]": "QML과 자바스크립트로 작성된 Plasma 위젯",
        "Description[nl]": "Hier thuishorend Plasma-widget geschreven in QML en JavaScript",
        "Description[nn]": "Plasma-element skriven i QML og JavaScript",
        "Description[pl]": "Element interfejsu Plazmy napisany w QML lub JavaScript",
        "Description[pt]": "Elemento nativo do Plasma criado em QML e JavaScript",
        "Description[sl]": "Domorodni Plasmin gradnik napisan v QML in JavaScriptu",
        "Description[sv]": "Inbyggd grafisk Plasma-komponent skriven i QML och Javascript",
        "Description[tr]": "QML ve JavaScript ile yazılmış yerel Plasma araç takımı",
        "Description[uk]": "Віджет Плазми, написаний на QML та JavaScript",
        "Description[vi]": "Phụ kiện nội Plasma viết bằng QML và JavaScript",
        "Description[x-test]": "xxNative Plasma widget written in QML and JavaScriptxx",
        "Description[zh_CN]": "使用 QML 和 JavaScript 编写的原生 Plasma 部件",
        "EnabledByDefault": true,
        "Icon": "text-x-script",
        "Id": "qmlscript",
        "License": "LGPL",
        "Name": "Declarative widget",
        "Name[az]": "Deklarativ vidjet",
        "Name[ca@valencia]": "Giny declaratiu",
        "Name[ca]": "Giny declaratiu",
        "Name[cs]": "Deklarativní widget",
        "Name[en_GB]": "Declarative widget",
        "Name[es]": "Widget declarativo",
        "Name[eu]": "Trepeta deklaratzailea",
        "Name[fr]": "Composant graphique déclaratif",
        "Name[ia]": "Widget declarative",
        "Name[id]": "Widget deklaratif",
        "Name[it]": "Oggetto dichiarativo",
        "Name[ko]": "Declarative 위젯",
        "Name[nl]": "Widget voor declaratie",
        "Name[nn]": "Deklarativt skjermelement",
        "Name[pl]": "Deklaratywny element interfejsu",
        "Name[pt]": "Elemento declarativo",
        "Name[sl]": "Deklarativni gradnik",
        "Name[sv]": "Deklarativ grafisk komponent",
        "Name[tr]": "Bildirimsel araç takımları",
        "Name[uk]": "Декларативний віджет",
        "Name[vi]": "Phụ kiện khai báo",
        "Name[x-test]": "xxDeclarative widgetxx",
        "Name[zh_CN]": "程序声明小部件",
        "ServiceTypes": [
            "Plasma/ScriptEngine"
        ],
        "Version": "0.1"
    },
    "X-EngineName": "declarativeappletscript",
    "X-Plasma-API": "declarativeappletscript",
    "X-Plasma-ComponentTypes": [
        "Applet"
    ]
}
