{
    "KPlugin": {
        "Authors": [
            {
                "Email": "aseigo@kde.org",
                "Name": "Aaron Seigo",
                "Name[ar]": "Aaron Seigo",
                "Name[az]": "Aaron Seigo",
                "Name[bg]": "Aaron Seigo",
                "Name[ca@valencia]": "Aaron Seigo",
                "Name[ca]": "Aaron Seigo",
                "Name[cs]": "Aaron Seigo",
                "Name[da]": "Aaron Seigo",
                "Name[de]": "Aaron Seigo",
                "Name[el]": "Aaron Seigo",
                "Name[en_GB]": "Aaron Seigo",
                "Name[es]": "Aaron Seigo",
                "Name[et]": "Aaron Seigo",
                "Name[eu]": "Aaron Seigo",
                "Name[fi]": "Aaron Seigo",
                "Name[fr]": "Aaron Seigo",
                "Name[gl]": "Aaron Seigo",
                "Name[hu]": "Aaron Seigo",
                "Name[ia]": "Aaron Seigo",
                "Name[id]": "Aaron Seigo",
                "Name[it]": "Aaron Seigo",
                "Name[ko]": "Aaron Seigo",
                "Name[lt]": "Aaron Seigo",
                "Name[nl]": "Aaron Seigo",
                "Name[nn]": "Aaron Seigo",
                "Name[pl]": "Aaron Seigo",
                "Name[pt]": "Aaron Seigo",
                "Name[pt_BR]": "Aaron Seigo",
                "Name[ro]": "Aaron Seigo",
                "Name[ru]": "Aaron Seigo",
                "Name[sk]": "Aaron Seigo",
                "Name[sl]": "Aaron Seigo",
                "Name[sr@ijekavian]": "Арон Џ. Сајго",
                "Name[sr@ijekavianlatin]": "Aron Dž. Sajgo",
                "Name[sr@latin]": "Aron Dž. Sajgo",
                "Name[sr]": "Арон Џ. Сајго",
                "Name[sv]": "Aaron Seigo",
                "Name[tg]": "Аарон Сейго (Aaron Seigo)",
                "Name[tr]": "Aaron Seigo",
                "Name[uk]": "Aaron Seigo",
                "Name[vi]": "Aaron Seigo",
                "Name[x-test]": "xxAaron Seigoxx",
                "Name[zh_CN]": "Aaron Seigo",
                "Name[zh_TW]": "Aaron Seigo"
            }
        ],
        "Category": "Examples",
        "Description": "A very basic DataEngine implementation",
        "Description[az]": "Ən sadə Plazma məlumat mənbəyi tətbiqi",
        "Description[ca@valencia]": "Una implementació molt bàsica de «DataEngine»",
        "Description[ca]": "Una implementació molt bàsica de «DataEngine»",
        "Description[en_GB]": "A very basic DataEngine implementation",
        "Description[es]": "Una implementación de motor de datos muy básica",
        "Description[eu]": "«DataEngine»ren inplementazio oso oinarrizko bat",
        "Description[fi]": "Hyvin alkeellinen tietomoottoritoteutus",
        "Description[fr]": "Une implémentation très basique d'un moteur de données",
        "Description[ia]": "Un implementation multo basic de DataEngine (Motor de datos)",
        "Description[id]": "Implementasi DataEngine yang sangat mendasar",
        "Description[it]": "Un'implementazione base di un motore di dati",
        "Description[ko]": "기본적인 데이터 엔진 구현",
        "Description[nl]": "Een erge basisimplementatie van een gegevens-engine",
        "Description[nn]": "Ein svært enkel «DataEngine»-implementasjon",
        "Description[pl]": "Bardzo podstawowa implementacja silnika danych",
        "Description[pt]": "Uma implementação muito básica do DataEngine",
        "Description[sl]": "Zelo osnovna izvedba podatkovnega stroja",
        "Description[sv]": "En mycket grundläggande implementering av DataEngine",
        "Description[tr]": "Pek yalın bir DataEngine oluşturumu",
        "Description[uk]": "Базова реалізація рушія даних",
        "Description[vi]": "Một phần thi hành DataEngine rất cơ bản",
        "Description[x-test]": "xxA very basic DataEngine implementationxx",
        "Description[zh_CN]": "非常基础的数据引擎实现示例程序",
        "EnabledByDefault": true,
        "Icon": "plasma",
        "Id": "org.kde.examples.simpleEngine",
        "License": "BSD",
        "Name": "Simple DataEngine Example",
        "Name[az]": "Sadə Plasma verilənləri mənbəyi nümunəsi",
        "Name[ca@valencia]": "Exemple senzill de «DataEngine»",
        "Name[ca]": "Exemple senzill de «DataEngine»",
        "Name[cs]": "Jednoduchý příklad datového nástroje",
        "Name[en_GB]": "Simple DataEngine Example",
        "Name[es]": "Ejemplo de motor de datos sencillo",
        "Name[eu]": "'DataEngine'ren adibide xumea",
        "Name[fi]": "Yksinkertainen tietomoottoriesimerkki",
        "Name[fr]": "Exemple simple de moteur de données",
        "Name[ia]": "Exemplo semplice de DataEngine (Motor de datos)",
        "Name[id]": "Simple DataEngine Example",
        "Name[it]": "Esempio di un motore di dati semplice",
        "Name[ko]": "간단한 데이터 엔진 예제",
        "Name[nl]": "Eenvoudig voorbeeld voor gegevensengine",
        "Name[nn]": "Enkelt «DataEngine»-eksempel",
        "Name[pl]": "Prosty przykład silnika danych",
        "Name[pt]": "Exemplo de DataEngine Simples",
        "Name[sl]": "Enostaven primer podatkovnega stroja",
        "Name[sv]": "Enkelt exempel på DataEngine",
        "Name[tr]": "Yalın DataEngine Örneği",
        "Name[uk]": "Простий приклад рушія даних",
        "Name[vi]": "Ví dụ DataEngine đơn giản",
        "Name[x-test]": "xxSimple DataEngine Examplexx",
        "Name[zh_CN]": "简单数据引擎示例",
        "ServiceTypes": [
            "Plasma/DataEngine"
        ],
        "Version": "1.0",
        "Website": "https://plasma.kde.org/"
    }
}
